<?xml version="1.0" encoding="UTF-8" standalone="no"?>
<!-- Created with Inkscape (http://www.inkscape.org/) -->

<svg
   xmlns:dc="http://purl.org/dc/elements/1.1/"
   xmlns:cc="http://creativecommons.org/ns#"
   xmlns:rdf="http://www.w3.org/1999/02/22-rdf-syntax-ns#"
   xmlns:svg="http://www.w3.org/2000/svg"
   xmlns="http://www.w3.org/2000/svg"
   xmlns:sodipodi="http://sodipodi.sourceforge.net/DTD/sodipodi-0.dtd"
   xmlns:inkscape="http://www.inkscape.org/namespaces/inkscape"
   id="svg4324"
   version="1.1"
   inkscape:version="0.91 r13725"
   xml:space="preserve"
   width="7.6999998in"
   height="3in"
   viewBox="0 0 692.99998 270"
   sodipodi:docname="EIS_measurement_w_voltage.svg"><title
     id="title4826">EIS potentiostatic measurement</title><metadata
     id="metadata4330"><rdf:RDF><cc:Work
         rdf:about=""><dc:format>image/svg+xml</dc:format><dc:type
           rdf:resource="http://purl.org/dc/dcmitype/StillImage" /><dc:title>EIS potentiostatic measurement</dc:title><cc:license
           rdf:resource="http://creativecommons.org/licenses/by/3.0/" /><dc:creator><cc:Agent><dc:title>Mohit Mehta</dc:title></cc:Agent></dc:creator></cc:Work><cc:License
         rdf:about="http://creativecommons.org/licenses/by/3.0/"><cc:permits
           rdf:resource="http://creativecommons.org/ns#Reproduction" /><cc:permits
           rdf:resource="http://creativecommons.org/ns#Distribution" /><cc:requires
           rdf:resource="http://creativecommons.org/ns#Notice" /><cc:requires
           rdf:resource="http://creativecommons.org/ns#Attribution" /><cc:permits
           rdf:resource="http://creativecommons.org/ns#DerivativeWorks" /></cc:License></rdf:RDF></metadata><defs
     id="defs4328"><marker
       inkscape:stockid="Arrow1Mstart"
       orient="auto"
       refY="0"
       refX="0"
       id="Arrow1Mstart"
       style="overflow:visible"
       inkscape:isstock="true"><path
         id="path6220"
         d="M 0,0 5,-5 -12.5,0 5,5 0,0 Z"
         style="fill:#000000;fill-opacity:1;fill-rule:evenodd;stroke:#000000;stroke-width:1pt;stroke-opacity:1"
         transform="matrix(0.4,0,0,0.4,4,0)"
         inkscape:connector-curvature="0" /></marker><marker
       inkscape:stockid="Arrow2Lstart"
       orient="auto"
       refY="0"
       refX="0"
       id="Arrow2Lstart"
       style="overflow:visible"
       inkscape:isstock="true"><path
         id="path4876"
         style="fill:#000000;fill-opacity:1;fill-rule:evenodd;stroke:#000000;stroke-width:0.625;stroke-linejoin:round;stroke-opacity:1"
         d="M 8.7185878,4.0337352 -2.2072895,0.01601326 8.7185884,-4.0017078 c -1.7454984,2.3720609 -1.7354408,5.6174519 -6e-7,8.035443 z"
         transform="matrix(1.1,0,0,1.1,1.1,0)"
         inkscape:connector-curvature="0" /></marker><marker
       inkscape:stockid="Arrow1Lstart"
       orient="auto"
       refY="0"
       refX="0"
       id="Arrow1Lstart"
       style="overflow:visible"
       inkscape:isstock="true"><path
         id="path4858"
         d="M 0,0 5,-5 -12.5,0 5,5 0,0 Z"
         style="fill:#000000;fill-opacity:1;fill-rule:evenodd;stroke:#000000;stroke-width:1pt;stroke-opacity:1"
         transform="matrix(0.8,0,0,0.8,10,0)"
         inkscape:connector-curvature="0" /></marker><clipPath
       clipPathUnits="userSpaceOnUse"
       id="clipPath4340"><path
         d="m 0,151 237.085,0 0,-151 L 0,0 0,151 Z"
         id="path4342"
         inkscape:connector-curvature="0" /></clipPath><clipPath
       clipPathUnits="userSpaceOnUse"
       id="clipPath4380"><path
         d="m 0,151 237.085,0 0,-151 L 0,0 0,151 Z"
         id="path4382"
         inkscape:connector-curvature="0" /></clipPath><clipPath
       clipPathUnits="userSpaceOnUse"
       id="clipPath4396"><path
         d="m 0,151 237.085,0 0,-151 L 0,0 0,151 Z"
         id="path4398"
         inkscape:connector-curvature="0" /></clipPath><clipPath
       clipPathUnits="userSpaceOnUse"
       id="clipPath4416"><path
         d="m 0,151 237.085,0 0,-151 L 0,0 0,151 Z"
         id="path4418"
         inkscape:connector-curvature="0" /></clipPath><clipPath
       clipPathUnits="userSpaceOnUse"
       id="clipPath4444"><path
         d="m 0,151 237.085,0 0,-151 L 0,0 0,151 Z"
         id="path4446"
         inkscape:connector-curvature="0" /></clipPath><clipPath
       clipPathUnits="userSpaceOnUse"
       id="clipPath4476"><path
         d="m 0,151 237.085,0 0,-151 L 0,0 0,151 Z"
         id="path4478"
         inkscape:connector-curvature="0" /></clipPath></defs><sodipodi:namedview
     pagecolor="#ffffff"
     bordercolor="#666666"
     borderopacity="1"
     objecttolerance="10"
     gridtolerance="10"
     guidetolerance="10"
     inkscape:pageopacity="0"
     inkscape:pageshadow="2"
     inkscape:window-width="1600"
     inkscape:window-height="1137"
     id="namedview4326"
     showgrid="false"
     units="in"
     fit-margin-top="0"
     fit-margin-left="0"
     fit-margin-right="0"
     fit-margin-bottom="0"
     inkscape:zoom="0.89755867"
     inkscape:cx="370.16327"
     inkscape:cy="9.335576"
     inkscape:window-x="-8"
     inkscape:window-y="-8"
     inkscape:window-maximized="1"
     inkscape:current-layer="g4332"
     inkscape:document-units="in"
     showguides="true"
     inkscape:guide-bbox="true"
     inkscape:snap-path-clip="true" /><g
     id="g4332"
     inkscape:groupmode="layer"
     inkscape:label="EIS_measurement_w_voltage"
     transform="matrix(1.25,0,0,-1.25,-183.76363,785.34477)"><g
       id="g4344"
       transform="matrix(0.71597106,0,0,2.5391406,148.30797,708.26396)" /><path
       sodipodi:nodetypes="cccc"
       inkscape:connector-curvature="0"
       id="path4350"
       style="fill:none;stroke:#000000;stroke-width:2.5696;stroke-linecap:butt;stroke-linejoin:round;stroke-miterlimit:10;stroke-dasharray:none;stroke-opacity:1"
       d="m 541.00256,593.79402 152.89367,-0.13526 -0.141,-135.8869 -149.84679,-5.1e-4" /><g
       id="g4352"
       transform="matrix(2.5423651,0,0,2.5391406,149.23417,708.26396)" /><g
       id="g4356"
       transform="matrix(2.5423651,0,0,2.5391406,392.40715,458.27207)"
       style="fill:none;stroke:#000000;stroke-opacity:1;stroke-width:1.01135398;stroke-miterlimit:4;stroke-dasharray:none"><path
         d="m 0,0 c 0,-8.945 -7.252,-16.197 -16.197,-16.197 -8.946,0 -16.197,7.252 -16.197,16.197 0,8.945 7.251,16.197 16.197,16.197 C -7.252,16.197 0,8.945 0,0 Z"
         style="fill:none;stroke:#000000;stroke-width:1.01135398;stroke-linecap:butt;stroke-linejoin:miter;stroke-miterlimit:4;stroke-dasharray:none;stroke-opacity:1"
         id="path4358"
         inkscape:connector-curvature="0" /></g><g
       id="g4364"
       transform="matrix(2.5423651,0,0,2.5391406,582.98684,454.17115)"
       style="fill:none;stroke:#000000;stroke-opacity:1" /><g
       id="g4368"
       transform="matrix(2.5423651,0,0,2.5391406,749.01751,708.26396)"
       style="fill:none;stroke:#000000;stroke-opacity:1" /><g
       id="g4392"
       transform="matrix(2.5423651,0,0,2.5391406,146.26215,411.00576)"><g
         id="g4394"
         clip-path="url(#clipPath4396)"><text
           transform="matrix(1,0,0,-1,51.5801,128.042)"
           style="font-variant:normal;font-weight:normal;font-stretch:normal;font-size:25px;font-family:'Times New Roman';-inkscape-font-specification:TimesNewRomanPSMT;writing-mode:lr-tb;fill:#231f20;fill-opacity:1;fill-rule:nonzero;stroke:none"
           id="text4400"
           inkscape:transform-center-x="173.6273"
           inkscape:transform-center-y="139.33055"><tspan
             x="0"
             y="0"
             id="tspan4402"
             style="font-size:15.74336815px" /></text>
</g></g><text
       transform="scale(1.0006348,-0.99936561)"
       style="font-style:normal;font-variant:normal;font-weight:normal;font-stretch:normal;font-size:37.03146362px;font-family:'Times New Roman';-inkscape-font-specification:'Times New Roman, ';writing-mode:lr-tb;fill:#231f20;fill-opacity:1;fill-rule:nonzero;stroke:none"
       id="text4408"
       x="324.79874"
       y="-715.43756"><tspan
         sodipodi:role="line"
         id="tspan4410"
         x="324.79874"
         y="-715.43756" /></text>
<g
       id="g4428"
       transform="matrix(2.5423651,0,0,2.5391406,543.90843,459.16789)"
       style="fill:none;stroke:#000000;stroke-opacity:1;stroke-width:1.01135398;stroke-miterlimit:4;stroke-dasharray:none"><path
         d="m 0,0 c 0,-8.945 -7.252,-16.197 -16.197,-16.197 -8.946,0 -16.197,7.252 -16.197,16.197 0,8.945 7.251,16.197 16.197,16.197 C -7.252,16.197 0,8.945 0,0 Z"
         style="fill:none;stroke:#000000;stroke-width:1.01135398;stroke-linecap:butt;stroke-linejoin:miter;stroke-miterlimit:4;stroke-dasharray:none;stroke-opacity:1"
         id="path4430"
         inkscape:connector-curvature="0" /></g><g
       id="g4448"
       transform="matrix(2.5423651,0,0,2.5391406,332.54259,470.00469)"
       style="fill:none;stroke:#000000;stroke-width:0.81865516;stroke-linecap:round;stroke-linejoin:miter;stroke-miterlimit:0;stroke-dasharray:none;stroke-opacity:1"><path
         d="M 0,0 0,-10.333"
         style="fill:none;stroke:#000000;stroke-width:0.81865516;stroke-linecap:round;stroke-linejoin:miter;stroke-miterlimit:0;stroke-dasharray:none;stroke-opacity:1"
         id="path4450"
         inkscape:connector-curvature="0" /></g><g
       id="g4452"
       transform="matrix(2.5423651,0,0,2.5391406,318.66597,457.20869)"
       style="fill:none;stroke:#000000;stroke-width:0.81865516;stroke-linecap:round;stroke-linejoin:miter;stroke-miterlimit:0;stroke-dasharray:none;stroke-opacity:1"><path
         d="M 0,0 11,0"
         style="fill:none;stroke:#000000;stroke-width:0.81865516;stroke-linecap:round;stroke-linejoin:miter;stroke-miterlimit:0;stroke-dasharray:none;stroke-opacity:1"
         id="path4454"
         inkscape:connector-curvature="0" /></g><g
       id="g4456"
       transform="matrix(2.5423651,0,0,2.5391406,355.85608,457.20869)"
       style="fill:none;stroke:#000000;stroke-width:0.81865516;stroke-linecap:round;stroke-linejoin:round;stroke-miterlimit:4;stroke-dasharray:none;stroke-opacity:1"><path
         d="M 0,0 11,0"
         style="fill:none;stroke:#000000;stroke-width:0.81865516;stroke-linecap:round;stroke-linejoin:round;stroke-miterlimit:4;stroke-dasharray:none;stroke-opacity:1"
         id="path4458"
         inkscape:connector-curvature="0" /></g><g
       id="g4480"
       transform="matrix(2.5423651,0,0,2.5391406,242.00716,457.77136)"
       style="fill:none;stroke:#000000;stroke-opacity:1"><path
         d="M 59.113968,0 86.354,0"
         style="fill:none;stroke:#000000;stroke-width:1;stroke-linecap:butt;stroke-linejoin:miter;stroke-miterlimit:10;stroke-dasharray:none;stroke-opacity:1"
         id="path4482"
         inkscape:connector-curvature="0"
         sodipodi:nodetypes="cc" /></g><g
       id="g4484"
       transform="matrix(2.5423651,0,0,2.5391406,524.33348,458.60674)"
       style="fill:none;stroke:#000000;stroke-width:0.81865516;stroke-miterlimit:4;stroke-dasharray:none;stroke-opacity:1"><path
         d="m 0,0 c -1.114,-2.923 -2.21,-5.892 -4.437,-5.892 -4.39,0 -4.39,11.52 -8.78,11.52 -2.195,0 -3.292,-2.88 -4.39,-5.76"
         style="fill:none;stroke:#000000;stroke-width:0.81865516;stroke-linecap:round;stroke-linejoin:round;stroke-miterlimit:4;stroke-dasharray:none;stroke-opacity:1"
         id="path4486"
         inkscape:connector-curvature="0" /></g><a
       id="a4787"
       transform="matrix(0.42669255,0,0,1.2443384,208.7684,-173.25552)"><g
         id="g4781"
         transform="matrix(0.71597106,0,0,2.5391406,302.07124,708.91702)" /></a><path
       inkscape:connector-curvature="0"
       id="path4796"
       d="m 328.60875,592.63767 c -79.42132,0.0314 -96.31063,-0.1467 -175.73184,-0.25884 0.39283,-84.64273 0.53593,-49.96322 0.49213,-134.60711 l 156.5831,0"
       style="fill:none;fill-rule:evenodd;stroke:#000000;stroke-width:2.5696;stroke-linecap:butt;stroke-linejoin:round;stroke-miterlimit:4;stroke-dasharray:none;stroke-opacity:1"
       sodipodi:nodetypes="cccc" /><text
       xml:space="preserve"
       style="font-style:normal;font-variant:normal;font-weight:normal;font-stretch:normal;font-size:32px;line-height:125%;font-family:'Times New Roman';-inkscape-font-specification:'Times New Roman, ';letter-spacing:0px;word-spacing:0px;fill:#000000;fill-opacity:1;stroke:none;stroke-width:1px;stroke-linecap:butt;stroke-linejoin:miter;stroke-opacity:1"
       x="173.42944"
       y="-502.36649"
       id="text4808"
       sodipodi:linespacing="125%"
       transform="scale(1,-1)"><tspan
         sodipodi:role="line"
         id="tspan4820"
         x="173.42944"
         y="-502.36649"
         style="font-size:40px">i<tspan
   style="font-style:normal;font-variant:normal;font-weight:normal;font-stretch:normal;font-size:26px;line-height:125%;font-family:'Times New Roman';-inkscape-font-specification:'Times New Roman, Normal';text-align:start;writing-mode:lr-tb;baseline-shift:sub;text-anchor:start"
   id="tspan6381">dc</tspan> + δi<tspan
   style="font-style:normal;font-variant:normal;font-weight:normal;font-stretch:normal;font-size:26px;font-family:'Times New Roman';-inkscape-font-specification:'Times New Roman, ';baseline-shift:sub"
   id="tspan4822">ac</tspan></tspan></text>
<text
       xml:space="preserve"
       style="font-style:normal;font-variant:normal;font-weight:normal;font-stretch:normal;font-size:32px;line-height:125%;font-family:'Times New Roman';-inkscape-font-specification:'Times New Roman, Normal';text-align:start;letter-spacing:0px;word-spacing:0px;writing-mode:lr-tb;text-anchor:start;fill:#000000;fill-opacity:1;stroke:none;stroke-width:1px;stroke-linecap:butt;stroke-linejoin:miter;stroke-opacity:1"
       x="387.8389"
       y="-481.91382"
       id="text4828"
       sodipodi:linespacing="125%"
       transform="scale(1,-1)"><tspan
         sodipodi:role="line"
         id="tspan4830"
         x="387.8389"
         y="-481.91382"
         style="font-size:40px">v<tspan
   style="font-style:normal;font-variant:normal;font-weight:normal;font-stretch:normal;font-size:26px;line-height:125%;font-family:'Times New Roman';-inkscape-font-specification:'Times New Roman, Normal';text-align:start;writing-mode:lr-tb;baseline-shift:sub;text-anchor:start"
   id="tspan3643">dc</tspan></tspan></text>
<text
       xml:space="preserve"
       style="font-style:normal;font-variant:normal;font-weight:normal;font-stretch:normal;font-size:32px;line-height:125%;font-family:'Times New Roman';-inkscape-font-specification:'Times New Roman, Normal';text-align:start;letter-spacing:0px;word-spacing:0px;writing-mode:lr-tb;text-anchor:start;fill:#000000;fill-opacity:1;stroke:none;stroke-width:1px;stroke-linecap:butt;stroke-linejoin:miter;stroke-opacity:1"
       x="548.03058"
       y="-481.64365"
       id="text4832"
       sodipodi:linespacing="125%"
       transform="scale(1,-1)"><tspan
         sodipodi:role="line"
         id="tspan4834"
         x="548.03058"
         y="-481.64365"
         style="font-size:40px">δv<tspan
   style="font-size:26px;baseline-shift:sub"
   id="tspan4850">ac</tspan></tspan></text>
<path
       style="fill:none;fill-rule:evenodd;stroke:#000000;stroke-width:1.87199998;stroke-linecap:round;stroke-linejoin:round;stroke-miterlimit:0;stroke-dasharray:none;stroke-opacity:1;marker-start:url(#Arrow1Mstart)"
       d="m 163.69956,542.94979 0,-58.46151"
       id="path4852"
       inkscape:connector-curvature="0" /><text
       xml:space="preserve"
       style="font-style:normal;font-variant:normal;font-weight:normal;font-stretch:normal;font-size:40px;line-height:125%;font-family:'Times New Roman';-inkscape-font-specification:'Times New Roman, Normal';text-align:start;letter-spacing:0px;word-spacing:0px;writing-mode:lr-tb;text-anchor:start;fill:#000000;fill-opacity:1;stroke:none;stroke-width:1px;stroke-linecap:round;stroke-linejoin:round;stroke-opacity:1"
       x="378.57651"
       y="-583.07135"
       id="text5917"
       sodipodi:linespacing="125%"
       transform="scale(1,-1)"><tspan
         sodipodi:role="line"
         id="tspan5919"
         x="378.57651"
         y="-583.07135">Battery</tspan></text>
<path
       d="m 540.42307,565.03289 -211.81574,0 0,57.24766 211.81574,0 0,-57.24766 z"
       style="fill:none;stroke:#000000;stroke-width:2.5696;stroke-linecap:round;stroke-linejoin:round;stroke-miterlimit:10;stroke-dasharray:none;stroke-opacity:1"
       id="path4334"
       inkscape:connector-curvature="0" /><g
       id="g7517"
       transform="translate(176.33484,306.98811)"><g
         style="fill:none;stroke:#000000;stroke-width:1.7521304;stroke-linecap:round;stroke-linejoin:round;stroke-miterlimit:4;stroke-dasharray:none;stroke-opacity:1"
         transform="matrix(1.3264777,0,0,1.0624142,196.1147,292.42195)"
         id="g4291"><path
           sodipodi:nodetypes="cc"
           inkscape:connector-curvature="0"
           id="path4293"
           style="fill:none;stroke:#000000;stroke-width:1.7521304;stroke-linecap:round;stroke-linejoin:round;stroke-miterlimit:4;stroke-dasharray:none;stroke-opacity:1"
           d="m -19.769,3.7237482 0,-19.6858312" /></g><path
         sodipodi:nodetypes="cc"
         inkscape:connector-curvature="0"
         id="path7515"
         style="fill:none;stroke:#000000;stroke-width:2.08;stroke-linecap:round;stroke-linejoin:round;stroke-miterlimit:4;stroke-dasharray:none;stroke-opacity:1"
         d="m 180.34359,285.8783 -20.9145,0" /><path
         d="m 358.66104,285.8783 -20.9145,0"
         style="fill:none;stroke:#000000;stroke-width:2.08;stroke-linecap:round;stroke-linejoin:round;stroke-miterlimit:4;stroke-dasharray:none;stroke-opacity:1"
         id="path7524"
         inkscape:connector-curvature="0"
         sodipodi:nodetypes="cc" /></g></g></svg>